\contentsline {chapter}{\numberline {1}Templates}{2}
\contentsline {section}{\numberline {1.1}Before Templates}{2}
\contentsline {section}{\numberline {1.2}What are Templates?}{3}
\contentsline {section}{\numberline {1.3}Templated functions}{3}
\contentsline {paragraph}{Calling the templated function:}{4}
\contentsline {paragraph}{Program output:}{4}
\contentsline {section}{\numberline {1.4}Templated classes}{5}
\contentsline {paragraph}{Example TemplatedArray (Full):}{6}
\contentsline {paragraph}{Using the TemplatedArray}{10}
